[
  {
  "name":"Asus",
  "price":"500$",
  "url":"https://i.pinimg.com/236x/d7/f8/90/d7f8906c6347bd39718bf940d8475bb4.jpg",
  "article":"01",
  "color":"grey"
  },
  {
   "name":"HP",
    "price":"600$",
    "url":"https://i.pinimg.com/236x/b4/9e/a2/b49ea2edbd453d14efe42d0f2925d740.jpg",
    "article":"02",
    "color":"black"
  },
  {
   "name":"HP",
    "price":"620$",
    "url":"https://i.pinimg.com/236x/13/50/ec/1350ec5a0f9a624058bd78961962e916.jpg",
    "article":"03",
    "color":"red"
  },
  {
   "name":"Apple MacBook",
    "price":"1200$",
    "url":"https://i.pinimg.com/236x/bb/52/b0/bb52b0109ebe4e7759f0a7db2cc34d81.jpg",
    "article":"04",
    "color":"silver"
  },
  {
   "name":"Acer",
    "price":"700$",
    "url":"https://i.pinimg.com/564x/9d/8a/7b/9d8a7b1fb1ae9d8aac640defe67786cf.jpg",
    "article":"05",
    "color":"silver-black"
  },
  {
   "name":"Acer Predator",
    "price":"1000$",
    "url":"https://i.pinimg.com/564x/bb/ef/95/bbef950f56442990b7cb025ff874a3f9.jpg",
    "article":"06",
    "color":"black-red"
  },
  {
   "name":"Lenovo Legion",
    "price":"1100$",
    "url":"https://i.pinimg.com/564x/d7/54/79/d75479389f471210d7bed1c1ea92acd6.jpg",
    "article":"07",
    "color":"dark-grey"
  },
  {
   "name":"msi",
    "price":"1200$",
    "url":"https://i.pinimg.com/236x/c7/a6/04/c7a604e91af551cb4c7d6db5a3c1e788.jpg",
    "article":"08",
    "color":"black"
  },
  {
   "name":"Apple MacBook Air",
    "price":"1500$",
    "url":"https://i.pinimg.com/236x/56/ef/e3/56efe3344741817e3086715ce4db3c06.jpg",
    "article":"09",
    "color":"pink"
  },
  {
   "name":"Lenovo ThinkPad",
    "price":"1100$",
    "url":"https://i.pinimg.com/236x/cd/93/74/cd93746ba7a576803e87f1243da7b0b5.jpg",
    "article":"10",
    "color":"black"
  },
  {
    "name":"Acer Espire",
    "price":"710$",
    "url":"https://i.pinimg.com/564x/9d/8a/7b/9d8a7b1fb1ae9d8aac640defe67786cf.jpg",
    "article":"11",
    "color":"silver"
  },
  {
    "name":"Asus R",
    "price":"650$",
    "url":"https://i.pinimg.com/236x/d7/f8/90/d7f8906c6347bd39718bf940d8475bb4.jpg",
    "article":"12",
    "color":"grey"
  }
]

